<?xml version="1.0" encoding="utf-8"?>
<!-- Generator: Adobe Illustrator 23.0.1, SVG Export Plug-In . SVG Version: 6.00 Build 0)  -->
<svg version="1.1" id="Layer_1" xmlns="http://www.w3.org/2000/svg" xmlns:xlink="http://www.w3.org/1999/xlink" x="0px" y="0px"
	 viewBox="0 0 596.9 596.9" style="enable-background:new 0 0 596.9 596.9;" xml:space="preserve">
<style type="text/css">
	.st0{fill:#FFFFFF;}
</style>
<g>
	<path class="st0" d="M179,61.1c0,4.6,0,8.7,0,12.9c0,3.5-3.6,7.1-7,7.1c-10.3,0-20.6,0.2-30.9-0.1c-13.3-0.4-26.1,1.6-38.5,6.4
		c-11.2,4.4-21.4,10.5-30.2,18.8c-5.7,5.4-10.2,11.7-14.2,18.4C49.8,138.7,45,154.1,45,170.4c-0.2,112.3-0.1,224.7-0.1,337
		c0,3.1,0.2,6.2,0.7,9.2c1.9,12.7,5.5,24.9,12.3,35.8c4.1,6.5,8.6,13,13.9,18.5c8.2,8.5,18.4,14.4,29.4,18.9
		c8.6,3.5,17.3,5.7,26.7,5.7c117.1-0.1,234.3-0.1,351.4,0c6.5,0,12.6-1,18.7-3c20.2-6.7,36.9-18.1,48.3-36.5
		c9.6-15.4,14.9-32.1,14.9-50c0.2-110,0.1-219.9,0.1-329.9c0-5.2-0.7-10.4-1.2-15.7c-0.9-10.7-4.4-20.7-9.1-30.2
		c-6.5-13-15.2-24.2-27.5-32.4c-15.9-10.6-33.2-16.7-52.3-16.9c-15.6-0.2-31.2,0-46.8,0c-3.5,0-7.1-3.6-7.1-7c0-4.2,0-8.5,0-13
		c-1.4,0-2.5,0-3.7,0c-13.6,0-27.2,0-40.8,0c-3,0-6.4-2.9-7.3-5.9c-4.6-15.1-11.3-28.9-24.6-38.4c-17.5-12.6-36.5-18.3-58-13.1
		c-12.7,3.1-24.2,9-33.5,18.1c-8.9,8.7-14.6,19.6-17.9,31.6c-1.5,5.3-4.2,7.7-9.7,7.7c-13,0-26,0-39,0
		C181.6,61.1,180.5,61.1,179,61.1z"/>
	<path d="M179,61.1c1.5,0,2.6,0,3.8,0c13,0,26,0,39,0c5.5,0,8.2-2.4,9.7-7.7c3.3-12,9-22.9,17.9-31.6c9.3-9.1,20.8-15,33.5-18.1
		c21.5-5.2,40.5,0.5,58,13.1c13.3,9.5,20,23.3,24.6,38.4c0.9,3,4.3,5.9,7.3,5.9c13.6,0,27.2,0,40.8,0c1.1,0,2.2,0,3.7,0
		c0,4.5,0,8.7,0,13c0,3.4,3.6,7,7.1,7c15.6,0,31.2-0.1,46.8,0c19.2,0.2,36.4,6.3,52.3,16.9c12.3,8.2,21,19.4,27.5,32.4
		c4.7,9.5,8.2,19.5,9.1,30.2c0.4,5.2,1.2,10.4,1.2,15.7c0.1,110,0.2,219.9-0.1,329.9c0,18-5.3,34.7-14.9,50
		c-11.5,18.4-28.2,29.7-48.3,36.5c-6,2-12.2,3.1-18.7,3c-117.1-0.1-234.3-0.1-351.4,0c-9.4,0-18.2-2.2-26.7-5.7
		c-11-4.5-21.2-10.4-29.4-18.9c-5.3-5.5-9.8-12-13.9-18.5c-6.8-10.9-10.3-23.1-12.3-35.8c-0.5-3-0.7-6.1-0.7-9.2
		c0-112.3-0.1-224.7,0.1-337c0-16.3,4.8-31.7,13.3-45.9c4-6.7,8.5-13,14.2-18.4c8.8-8.3,19-14.4,30.2-18.8
		c12.3-4.8,25.2-6.8,38.5-6.4c10.3,0.3,20.6,0.1,30.9,0.1c3.4,0,7-3.6,7-7.1C179,69.8,179,65.6,179,61.1z M179,200
		c0-1.6,0-2.8,0-4.1c0-29.3,0-58.6,0-87.9c0-3.1-3.5-7-6.4-7c-16.1,0.2-32.1,0.3-48.2,0.7c-7.4,0.2-14.4,2.7-21,6
		c-10.4,5.2-18.7,13.1-25.7,22.1c-8.8,11.3-12.8,24.6-12.8,38.8c0.1,115.6,0.4,231.2,0.6,346.9c0,8.4,2.8,16.3,6.5,23.7
		c5.1,10.1,12.9,18,21.7,24.9c10.3,8.1,22.1,12.7,35.3,12.7c116.2,0.1,232.4,0.1,348.6,0c7.8,0,15.4-2,22.4-5.2
		c13.7-6.3,24.2-16.5,32.2-29.1c5.2-8.2,8.5-17.3,8.5-27.1c0.1-117.6,0.1-235.3,0.1-352.9c0-0.8,0.1-1.7,0-2.5
		c-2.3-11.9-5.4-23.6-14.4-32.5c-0.1-0.1-0.3-0.3-0.4-0.5c-4.5-4.5-8.7-9.5-13.7-13.3c-11.8-8.9-25.4-12.9-40.3-12.7
		c-15.7,0.2-31.4,0-47.1,0c-4.1,0-7.5,3.4-7.5,7.5c0,29.3,0,58.6,0,87.9c0,1.2,0,2.4,0,3.6C337.6,200,258.5,200,179,200z M347.4,81
		c0-5.7,0.1-10.9,0-16c0-2.2-0.2-4.5-0.8-6.7c-3.5-13.2-11.8-23.1-23.1-30.2c-12.8-8.2-27-8-41.2-4.4c-6.2,1.6-11.2,5.4-16.2,9.6
		c-13.1,11.2-18.9,25-17.3,42c0.2,1.8,0,3.7,0,5.6c-1.6,0-2.7,0-3.8,0c-13,0-26,0-39,0c-3.5,0-7.1,3.5-7.1,6.9c0,28.5,0,56.9,0,85.4
		c0,3.2,3.7,6.8,6.9,6.8c61.5,0,123,0,184.5,0c3.2,0,6.8-3.7,6.8-6.9c0-28.5,0-56.9,0-85.4c0-3.2-3.7-6.8-6.9-6.8
		c-13.1,0-26.2,0-39.3,0C349.9,81,348.8,81,347.4,81z"/>
	<path class="st0" d="M179,200c79.5,0,158.6,0,238.2,0c0-1.2,0-2.4,0-3.6c0-29.3,0-58.6,0-87.9c0-4.1,3.4-7.5,7.5-7.5
		c15.7,0,31.4,0.2,47.1,0c14.9-0.2,28.5,3.7,40.3,12.7c5,3.8,9.2,8.8,13.7,13.3c0.1,0.1,0.3,0.3,0.4,0.5c9,9,12.1,20.6,14.4,32.5
		c0.2,0.8,0,1.7,0,2.5c0,117.6,0,235.3-0.1,352.9c0,9.8-3.3,18.9-8.5,27.1c-8,12.6-18.4,22.8-32.2,29.1c-7.1,3.3-14.6,5.2-22.4,5.2
		c-116.2,0-232.4,0.1-348.6,0c-13.2,0-25-4.6-35.3-12.7c-8.8-6.9-16.6-14.8-21.7-24.9c-3.7-7.4-6.5-15.2-6.5-23.7
		c-0.2-115.6-0.5-231.2-0.6-346.9c0-14.2,4-27.5,12.8-38.8c7-9,15.3-16.9,25.7-22.1c6.6-3.3,13.5-5.8,21-6
		c16.1-0.4,32.1-0.5,48.2-0.7c2.9,0,6.4,3.9,6.4,7c0,29.3,0,58.6,0,87.9C179,197.1,179,198.4,179,200z M417.2,285.5
		c-1.6-2.3-2.6-4.6-4.3-6.2c-11.4-11.5-22.9-23-34.4-34.4c-4.6-4.6-8-4.6-12.6,0C310.6,300.2,255.2,355.6,199.8,411
		c-1.5,1.5-2.6,3.4-3.4,5.4c-3.2,7.7-6.3,15.4-9.4,23.2c-5,12.2-9.9,24.5-14.9,36.7c-1.2,2.8-1,5.6,1.1,7.7c2.3,2.2,5.2,3.1,8.4,1.7
		c1.9-0.8,3.8-1.5,5.6-2.3c16.1-6.5,32.2-13,48.3-19.5c5.6-2.3,10.7-5,15.1-9.6c18.2-18.7,36.8-37,55.2-55.4
		c35.8-35.8,71.6-71.6,107.3-107.4C414.9,289.9,415.8,287.7,417.2,285.5z M207.7,487.8c0,0.2,0.1,0.3,0.1,0.5c1,0,2.1,0,3.1,0
		c51.9,0,103.9,0,155.8,0c0.7,0,1.5,0,2.2,0c4.5-0.3,8.5-5.3,7.9-9.8c-0.6-4.9-3.8-8.2-11-8.2c-37.6-0.1-75.2,0-112.8,0
		c-0.9,0-1.9-0.1-2.7,0.3C236,476.2,221.8,482,207.7,487.8z"/>
	<path class="st0" d="M347.4,81c1.5,0,2.6,0,3.7,0c13.1,0,26.2,0,39.3,0c3.2,0,6.9,3.6,6.9,6.8c0,28.5,0,56.9,0,85.4
		c0,3.2-3.6,6.9-6.8,6.9c-61.5,0-123,0-184.5,0c-3.2,0-6.9-3.6-6.9-6.8c0-28.5,0-56.9,0-85.4c0-3.4,3.6-6.9,7.1-6.9c13,0,26,0,39,0
		c1.1,0,2.3,0,3.8,0c0-2,0.1-3.8,0-5.6c-1.6-17,4.2-30.9,17.3-42c4.9-4.2,10-8,16.2-9.6c14.2-3.6,28.4-3.8,41.2,4.4
		c11.2,7.1,19.6,17,23.1,30.2c0.6,2.1,0.7,4.5,0.8,6.7C347.4,70.2,347.4,75.4,347.4,81z"/>
	<path d="M417.2,285.5c-1.4,2.2-2.3,4.4-3.9,6c-35.7,35.9-71.5,71.6-107.3,107.4c-18.4,18.4-37,36.8-55.2,55.4
		c-4.4,4.5-9.5,7.3-15.1,9.6c-16.1,6.5-32.2,13-48.3,19.5c-1.9,0.8-3.8,1.5-5.6,2.3c-3.2,1.4-6.1,0.5-8.4-1.7
		c-2.1-2.1-2.3-4.9-1.1-7.7c5-12.2,10-24.5,14.9-36.7c3.1-7.7,6.2-15.5,9.4-23.2c0.8-1.9,1.9-3.9,3.4-5.4
		c55.4-55.5,110.8-110.9,166.2-166.3c4.5-4.5,8-4.6,12.6,0c11.5,11.5,23,22.9,34.4,34.4C414.6,280.9,415.7,283.2,417.2,285.5z
		 M389.4,275.8c-0.9,1.1-1.6,2-2.4,2.8c-39.3,39.3-78.6,78.6-117.9,117.9c-11,11-22,22.1-33.1,33c-0.8,0.8-1.8,1.8-2.7,1.8
		c-1.2-0.1-2.8-0.8-3.4-1.8c-1.2-1.7,0-3.2,1.3-4.5c50.4-50.4,100.8-100.8,151.3-151.2c0.9-0.8,2.2-1.2,3-1.6
		c-5.1-5.1-9.2-9.2-13.4-13.4c-0.5,0.5-1.2,1.1-1.8,1.7c-53,53-106,106-158.9,159c-0.7,0.7-1.4,1.5-1.8,2.4
		c-3,7.2-5.9,14.5-8.7,21.8c-0.4,1,0,2.8,0.8,3.7c2.8,3.1,5.9,5.9,8.7,8.9c1.3,1.4,2.6,1.6,4.4,0.9c4.9-2.1,10-3.9,15-6.1
		c3.1-1.4,6.7-2.5,9-4.8c53-52.7,105.8-105.6,158.6-158.4c0.7-0.7,1.4-1.5,1.9-2.1C395.9,282.5,392.9,279.4,389.4,275.8z"/>
	<path d="M207.7,487.8c14.2-5.8,28.3-11.6,42.5-17.3c0.8-0.3,1.8-0.3,2.7-0.3c37.6,0,75.2-0.1,112.8,0c7.3,0,10.4,3.3,11,8.2
		c0.6,4.5-3.4,9.5-7.9,9.8c-0.7,0.1-1.5,0-2.2,0c-51.9,0-103.9,0-155.8,0c-1,0-2.1,0-3.1,0C207.7,488.1,207.7,487.9,207.7,487.8z"/>
	<path class="st0" d="M389.4,275.8c3.5,3.6,6.5,6.7,9.6,10c-0.5,0.6-1.2,1.4-1.9,2.1c-52.8,52.8-105.6,105.7-158.6,158.4
		c-2.3,2.3-5.9,3.4-9,4.8c-4.9,2.2-10,4-15,6.1c-1.8,0.8-3,0.6-4.4-0.9c-2.8-3-6-5.8-8.7-8.9c-0.7-0.8-1.1-2.7-0.8-3.7
		c2.7-7.3,5.7-14.5,8.7-21.8c0.4-0.9,1.1-1.7,1.8-2.4c53-53,106-106,158.9-159c0.6-0.6,1.3-1.2,1.8-1.7c4.2,4.2,8.3,8.3,13.4,13.4
		c-0.8,0.4-2.1,0.8-3,1.6C332,324.3,281.6,374.7,231.2,425.1c-1.4,1.4-2.5,2.8-1.3,4.5c0.7,1,2.2,1.7,3.4,1.8c0.8,0.1,1.9-1,2.7-1.8
		c11.1-11,22.1-22,33.1-33c39.3-39.3,78.6-78.6,117.9-117.9C387.8,277.8,388.5,276.9,389.4,275.8z"/>
</g>
</svg>
