<?xml version="1.0" encoding="utf-8"?>
<!-- Generator: Adobe Illustrator 23.0.1, SVG Export Plug-In . SVG Version: 6.00 Build 0)  -->
<svg version="1.1" id="Layer_1" xmlns="http://www.w3.org/2000/svg" xmlns:xlink="http://www.w3.org/1999/xlink" x="0px" y="0px"
	 viewBox="0 0 596.9 596.9" style="enable-background:new 0 0 596.9 596.9;" xml:space="preserve">
<style type="text/css">
	.st0{fill:#FFFFFF;}
</style>
<g>
	<path class="st0" d="M328.4,438.4c25.5,0,50.9,0,76.3,0c32,0,61.1-9.5,88.8-25.1c26.5-14.9,47.4-35.4,62.6-61.2
		c22-37.2,32.6-77.6,27.1-121.1c-3.4-26.6-15.3-49.8-35-67.1c-19.4-17.1-42.8-28.5-69.6-30.5c-6.1-0.5-11.1-1.7-12.4-9.9
		c-1.7-10.5-4.1-21.3-8.8-30.8C433.7,44.3,392,21.7,340.3,20c-67.5-2.1-135.2-0.6-202.8-0.5c-14.8,0-26.9,9.8-30,24.2
		c-16.2,74.7-32.4,149.3-48.4,224c-12.5,58.3-24.8,116.6-37.3,175c-3.9,18.2,9.2,34,26.6,33.3c34.6-1.4,69.4-0.4,104.5-0.4
		c-5.5,24.7-10.4,48.9-16.1,72.9c-6.7,28.2,7.3,37.7,28.4,38.6c35.4,1.5,70.9,0.6,106.3,0.3c14.8-0.1,25.9-8.8,28.9-22.5
		C309.6,523.9,318.6,482.8,328.4,438.4z"/>
	<path d="M328.4,438.4c-9.8,44.3-18.9,85.5-28.1,126.6c-3.1,13.7-14.1,22.4-28.9,22.5c-35.4,0.2-70.9,1.2-106.3-0.3
		c-21.1-0.9-35.1-10.4-28.4-38.6c5.7-24,10.7-48.1,16.1-72.9c-35.1,0-69.8-1-104.5,0.4C31,476.8,17.9,461,21.8,442.8
		c12.5-58.3,24.8-116.7,37.3-175c16-74.7,32.2-149.4,48.4-224c3.1-14.5,15.2-24.2,30-24.2c67.6-0.1,135.2-1.6,202.8,0.5
		c51.8,1.6,93.4,24.3,117.2,72.8c4.6,9.4,7.1,20.3,8.8,30.8c1.3,8.2,6.3,9.5,12.4,9.9c26.8,2,50.2,13.4,69.6,30.5
		c19.7,17.3,31.7,40.5,35,67.1c5.5,43.5-5.1,83.9-27.1,121.1c-15.2,25.8-36.2,46.3-62.6,61.2c-27.7,15.6-56.9,25.1-88.8,25.1
		C379.3,438.4,353.9,438.4,328.4,438.4z M161.5,561.2c37.3,0,72.4,0.1,107.4-0.3c2.5,0,6.6-3.3,7.2-5.8
		c8.4-38.7,16.2-77.6,24.6-116.4c3.4-15.7,13.6-25,30.1-25c32.2,0.1,64.9,0.6,96.6-4.5c87.1-14,127.1-82.1,131.2-157.9
		c1.5-27.6-9.4-53.4-32.8-70.8c-17.5-13-37.9-19.1-57.1-20.7c-6,22.8-10.2,44.6-17.5,65.3c-8.7,24.8-23.3,46.5-44,63.2
		c-35.9,28.9-77.9,40-123.2,40.3c-19.7,0.1-39.5,0.2-59.2,0c-8.9-0.1-14.6,2.8-16.3,12.3c-1.9,10.5-4.6,20.9-6.8,31.4
		c-10.1,47.1-20.1,94.3-30.2,141.5C168.4,529.2,165,544.5,161.5,561.2z M156.8,449.1c3.4-13.2,7-25.5,9.8-38.1
		c10.7-48.5,21-97,31.7-145.5c8.3-37.3,17.2-74.4,25.3-111.8c3.4-15.7,10.3-22.4,26-22.4c58.8,0,117.7,0,176.5,0c4,0,7.9,0,13.1,0
		c-4.4-26.6-15-48.1-36.1-63.7c-22-16.2-47.7-21.1-74.2-21.7c-33.6-0.8-67.2-0.2-100.9-0.2c-31,0-62.1,0-93.9,0
		C105,180.4,75.8,314.5,46.5,449.1C83.9,449.1,120,449.1,156.8,449.1z M217.2,302.6c39.4-1.7,78.2,3.5,116.5-6.7
		c39.1-10.4,69.1-31.8,87.6-68.5c11-21.7,16.3-44.8,19.3-68.8c-1.2-0.3-2.3-0.9-3.3-0.9c-60.3-0.1-120.6,0-180.9-0.2
		c-6,0-7.6,2.4-8.8,8.2C237.8,211.1,227.5,256.3,217.2,302.6z"/>
	<path class="st0" d="M161.5,561.2c3.6-16.7,6.9-32,10.2-47.3c10.1-47.2,20.1-94.3,30.2-141.5c2.2-10.5,5-20.9,6.8-31.4
		c1.7-9.6,7.4-12.4,16.3-12.3c19.7,0.2,39.5,0.2,59.2,0c45.3-0.3,87.3-11.5,123.2-40.3c20.7-16.7,35.3-38.4,44-63.2
		c7.3-20.7,11.5-42.5,17.5-65.3c19.1,1.6,39.6,7.7,57.1,20.7c23.4,17.4,34.3,43.2,32.8,70.8c-4.1,75.9-44.2,143.9-131.2,157.9
		c-31.6,5.1-64.4,4.6-96.6,4.5c-16.5,0-26.7,9.2-30.1,25c-8.5,38.7-16.2,77.6-24.6,116.4c-0.5,2.4-4.7,5.7-7.2,5.8
		C233.9,561.3,198.8,561.2,161.5,561.2z"/>
	<path class="st0" d="M156.8,449.1c-36.7,0-72.9,0-110.3,0C75.8,314.5,105,180.4,134.3,45.8c31.8,0,62.8,0,93.9,0
		c33.6,0,67.3-0.6,100.9,0.2c26.4,0.6,52.1,5.4,74.2,21.7c21.1,15.6,31.7,37,36.1,63.7c-5.2,0-9.2,0-13.1,0c-58.8,0-117.7,0-176.5,0
		c-15.7,0-22.6,6.7-26,22.4c-8.1,37.3-17,74.5-25.3,111.8c-10.7,48.5-21,97-31.7,145.5C163.8,423.6,160.2,435.9,156.8,449.1z"/>
	<path class="st0" d="M217.2,302.6c10.4-46.3,20.7-91.5,30.4-136.8c1.2-5.8,2.9-8.2,8.8-8.2c60.3,0.1,120.6,0.1,180.9,0.2
		c1,0,2.1,0.5,3.3,0.9c-3,24-8.3,47-19.3,68.8c-18.5,36.7-48.5,58.1-87.6,68.5C295.4,306.2,256.5,301,217.2,302.6z"/>
</g>
</svg>
