<svg xmlns="http://www.w3.org/2000/svg" width="1.597in" height="37.344">
    <text font-family="Garment District" font-size="250" transform="matrix(.11712 0 0 .11711 .301 22.303)">
        Badge Keep
    </text>
</svg>
